-*- mode: compilation; default-directory: "~/thesis/" -*-
Comint started at Mon Sep 25 12:33:11

python fasttext.py
/home/bob/.asdf/installs/python/miniconda3-4.3.11/lib/python3.6/site-packages/numpy/core/fromnumeric.py:2909: RuntimeWarning: Mean of empty slice.
  out=out, **kwargs)
attempted to embed 76688992 words, failed on 1013238 
success ratio = 0.9867876995957907

Inferior Python finished at Mon Sep 25 12:38:02
