-*- mode: compilation; default-directory: "~/thesis/" -*-
Comint started at Thu Oct  5 13:34:45

python preprocess.py
            game_id     sk  replacements
scum                                    
False  28201.314277  False      0.334286
True   28322.906054  False      0.351775
            game_id           wc
scum                            
False  28531.292122  3936.666927
True   28844.963103  3859.265409
675 games, 7236 documents

Inferior Python finished at Thu Oct  5 13:35:24
